com\epam\web\dao\MealDao.class
com\epam\web\validation\EditValidator.class
com\epam\web\jdbc\ProxyConnection.class
com\epam\web\command\impl\UsersCommand.class
com\epam\web\command\impl\LoginCommand.class
com\epam\web\command\impl\DeleteMealCommand.class
com\epam\web\command\constants\PagesConst.class
com\epam\web\command\impl\EditCommand.class
com\epam\web\entity\impl\OrderMeal.class
com\epam\web\entity\impl\User.class
com\epam\web\command\impl\BalanceCommand.class
com\epam\web\command\impl\ManagerPaidCommand.class
com\epam\web\builder\BuilderFactory.class
com\epam\web\dao\AbstractDao.class
com\epam\web\command\impl\LocaleCommand.class
com\epam\web\command\impl\FeedbackCommand.class
com\epam\web\validation\PageValidator.class
com\epam\web\builder\impl\UserBuilder.class
com\epam\web\exception\DaoException.class
com\epam\web\command\impl\HistoryCommand.class
com\epam\web\command\impl\LogoutCommand.class
com\epam\web\command\impl\UserCancelCommand.class
com\epam\web\dao\UserDao.class
com\epam\web\entity\impl\Meal.class
com\epam\web\controller\CommandResult.class
com\epam\web\validation\NewMealValidator.class
com\epam\web\builder\impl\OrderMealBuilder.class
com\epam\web\dao\DaoFactory.class
com\epam\web\dao\OrderDao.class
com\epam\web\entity\impl\User$1.class
com\epam\web\exception\ServiceException.class
com\epam\web\dao\impl\OrderDaoImpl.class
com\epam\web\command\impl\NewMealCommand.class
com\epam\web\tag\PaginationTag.class
com\epam\web\reader\ConfigReader.class
com\epam\web\builder\Builder.class
com\epam\web\entity\impl\Order$1.class
com\epam\web\command\impl\ManagerCancelCommand.class
com\epam\web\entity\enums\OrderStatus.class
com\epam\web\entity\impl\Order.class
com\epam\web\dao\impl\OrderMealDaoImpl.class
com\epam\web\command\constants\CommandConst.class
com\epam\web\service\MealService.class
com\epam\web\entity\enums\UserRole.class
com\epam\web\dao\impl\UserDaoImpl.class
com\epam\web\command\impl\MealCommand.class
com\epam\web\validation\FeedbackValidator.class
com\epam\web\dao\Dao.class
com\epam\web\filter\UserFilter.class
com\epam\web\command\impl\OrdersListCommand.class
com\epam\web\service\UserService.class
com\epam\web\validation\LoginValidator.class
com\epam\web\command\CommandFactory.class
com\epam\web\command\impl\OrderCommand.class
com\epam\web\validation\OrderValidator.class
com\epam\web\service\OrderService.class
com\epam\web\command\Command.class
com\epam\web\entity\impl\User$Builder.class
com\epam\web\entity\impl\Meal$Builder.class
com\epam\web\jdbc\connection\ConnectionFactory.class
com\epam\web\entity\Identifable.class
com\epam\web\service\OrderMealService.class
com\epam\web\tag\TimeTag.class
com\epam\web\dao\OrderMealDao.class
com\epam\web\entity\impl\Order$Builder.class
com\epam\web\command\impl\ShowPageCommand.class
com\epam\web\validation\CardValidator.class
com\epam\web\controller\ControllerServlet.class
com\epam\web\dao\impl\MealDaoImpl.class
com\epam\web\command\impl\MenuCommand.class
com\epam\web\filter\LocaleFilter.class
com\epam\web\jdbc\ConnectionPool.class
com\epam\web\builder\impl\MealBuilder.class
